EU,376
AS,971
AS,93
NA,+1-268
NA,+1-264
EU,355
AS,374
AF,244
AN,
SA,54
OC,+1-684
EU,43
OC,61
NA,297
EU,+358-18
AS,994
EU,387
NA,+1-246
AS,880
EU,32
AF,226
EU,359
AS,973
AF,257
AF,229
NA,590
NA,+1-441
AS,673
SA,591
NA,599
SA,55
NA,+1-242
AS,975
AN,
AF,267
EU,375
NA,501
NA,1
AS,61
AF,243
AF,236
AF,242
EU,41
AF,225
OC,682
SA,56
AF,237
AS,86
SA,57
NA,506
NA,53
AF,238
NA,599
OC,61
EU,357
EU,420
EU,49
AF,253
EU,45
NA,+1-767
NA,+1-809 and 1-829
AF,213
SA,593
EU,372
AF,20
AF,212
AF,291
EU,34
AF,251
EU,358
OC,679
SA,500
OC,691
EU,298
EU,33
AF,241
EU,44
NA,+1-473
AS,995
SA,594
EU,+44-1481
AF,233
EU,350
NA,299
AF,220
AF,224
NA,590
AF,240
EU,30
AN,
NA,502
OC,+1-671
AF,245
SA,592
AS,852
AN, 
NA,504
EU,385
NA,509
EU,36
AS,62
EU,353
AS,972
EU,+44-1624
AS,91
AS,246
AS,964
AS,98
EU,354
EU,39
EU,+44-1534
NA,+1-876
AS,962
AS,81
AF,254
AS,996
AS,855
OC,686
AF,269
NA,+1-869
AS,850
AS,82
EU,
AS,965
NA,+1-345
AS,7
AS,856
AS,961
NA,+1-758
EU,423
AS,94
AF,231
AF,266
EU,370
EU,352
EU,371
AF,218
AF,212
EU,377
EU,373
EU,382
NA,590
AF,261
OC,692
EU,389
AF,223
AS,95
AS,976
AS,853
OC,+1-670
NA,596
AF,222
NA,+1-664
EU,356
AF,230
AS,960
AF,265
NA,52
AS,60
AF,258
AF,264
OC,687
AF,227
OC,672
AF,234
NA,505
EU,31
EU,47
AS,977
OC,674
OC,683
OC,64
AS,968
NA,507
SA,51
OC,689
OC,675
AS,63
AS,92
EU,48
NA,508
OC,870
NA,+1-787 and 1-939
AS,970
EU,351
OC,680
SA,595
AS,974
AF,262
EU,40
EU,381
EU,7
AF,250
AS,966
OC,677
AF,248
AF,249
AF,211
EU,46
AS,65
AF,290
EU,386
EU,47
EU,421
AF,232
EU,378
AF,221
AF,252
SA,597
AF,239
NA,503
NA,599
AS,963
AF,268
NA,+1-649
AF,235
AN,
AF,228
AS,66
AS,992
OC,690
OC,670
AS,993
AF,216
OC,676
AS,90
NA,+1-868
OC,688
AS,886
AF,255
EU,380
AF,256
OC,1
NA,1
SA,598
AS,998
EU,379
NA,+1-784
SA,58
NA,+1-284
NA,+1-340
AS,84
OC,678
OC,681
OC,685
AS,967
AF,262
AF,27
AF,260
AF,263
EU,381
NA,599
